Lab 8: Diagnosing Cancer
…
Degrees of Freedom: 435 Total (i.e. Null);  434 Residual
Null Deviance:      583.1 
Residual Deviance: 498.3    AIC: 502.3

p_hat_model1 <- predict(model1, cells_train, type = 'response')

prediction <- tibble(y=cells_train$diagnosis) %>%
              mutate(p_hat_model1 = p_hat_model1,
                     y_hat_model1 = p_hat_model1 > 0.5,
                     misclassified = (y == "M" & y_hat_model1 == FALSE) | 
                       (y == "B" & y_hat_model1 == TRUE) )

prediction

# A tibble: 436 × 4
   y     p_hat_model1 y_hat_model1 misclassified
   <fct>        <dbl> <lgl>        <lgl>        
 1 M           0.0682 FALSE        TRUE         
 2 M           0.298  FALSE        TRUE         
 3 M           0.493  FALSE        TRUE         
 4 M           0.442  FALSE        TRUE         
 5 M           0.158  FALSE        TRUE         
 6 M           0.206  FALSE        TRUE         
 7 M           0.419  FALSE        TRUE         
 8 M           0.469  FALSE        TRUE         
 9 M           0.527  TRUE         FALSE        
10 M           0.654  TRUE         FALSE        
# … with 426 more rows
…
Degrees of Freedom: 435 Total (i.e. Null);  430 Residual
Null Deviance:      583.1 
Residual Deviance: 148.9    AIC: 160.9

p_hat_model3 <- predict(model2, cells_train, type = 'response')

prediction3 <- tibble(y=cells_train$diagnosis) %>%
              mutate(p_hat_model3 = p_hat_model3,
                     y_hat_model3 = p_hat_model3 > 0.5,
                     misclassified = (y == "M" & y_hat_model3 == FALSE) | 
                       (y == "B" & y_hat_model3 == TRUE) )
prediction3

# A tibble: 436 × 4
   y     p_hat_model3 y_hat_model3 misclassified
   <fct>        <dbl> <lgl>        <lgl>        
 1 M            1.00  TRUE         FALSE        
 2 M            0.994 TRUE         FALSE        
 3 M            1.00  TRUE         FALSE        
 4 M            0.979 TRUE         FALSE        
 5 M            0.999 TRUE         FALSE        
 6 M            0.316 FALSE        TRUE         
 7 M            0.983 TRUE         FALSE        
 8 M            0.916 TRUE         FALSE        
 9 M            0.853 TRUE         FALSE        
10 M            0.963 TRUE         FALSE        
# … with 426 more rows
…
::: The disparity in the misclassification rates still shows some evidence of overfitting, but it less than our original model.

Question 10

If you were to deploy your method in a clinical setting to help diagnose cancer, which type of classification error would be worse and why?

It would be worse if the model classified a tumor as benign while the tumor was actually malignant(false negative). This would be worse because the patient would subsequently not get the appropriate treatment for a malignant tumor.

Question 11

Calculate the total number of false negatives in the test data set when using your simple model with only one variable. ::: {.cell}

prediction2

# A tibble: 133 × 4
   y     p_hat_model2 y_hat_model2 misclassified
   <fct>        <dbl> <lgl>        <lgl>        
 1 M            0.574 TRUE         FALSE        
 2 B            0.107 FALSE        FALSE        
 3 M            0.434 FALSE        TRUE         
 4 M            0.514 TRUE         FALSE        
 5 M            0.521 TRUE         FALSE        
 6 M            0.513 TRUE         FALSE        
 7 M            0.499 FALSE        TRUE         
 8 M            0.539 TRUE         FALSE        
 9 M            0.514 TRUE         FALSE        
10 B            0.176 FALSE        FALSE        
# … with 123 more rows
…
What can you change about your classification rule to lower the number of false negatives? Make this change and calculate the new number of false negatives.

We can try lowering our thresh-hold to 0.35. This will lower the number of false negatives. ::: {.cell}

p_hat_model2 <- predict(model1, cells_test, type = 'response')

prediction2 <- tibble(y=cells_test$diagnosis) %>%
              mutate(p_hat_model2 = p_hat_model2,
                     y_hat_model2 = p_hat_model2 > 0.35,
                     misclassified = (y == "M" & y_hat_model2 == FALSE) | 
                       (y == "B" & y_hat_model2 == TRUE))
prediction2

# A tibble: 133 × 4
   y     p_hat_model2 y_hat_model2 misclassified
   <fct>        <dbl> <lgl>        <lgl>        
 1 M            0.574 TRUE         FALSE        
 2 B            0.107 FALSE        FALSE        
 3 M            0.434 TRUE         FALSE        
 4 M            0.514 TRUE         FALSE        
 5 M            0.521 TRUE         FALSE        
 6 M            0.513 TRUE         FALSE        
 7 M            0.499 TRUE         FALSE        
 8 M            0.539 TRUE         FALSE        
 9 M            0.514 TRUE         FALSE        
10 B            0.176 FALSE        FALSE        
# … with 123 more rows

malignant_pred2 <- prediction2 %>% filter(y == "M")
malignant_pred2

# A tibble: 42 × 4
   y     p_hat_model2 y_hat_model2 misclassified
   <fct>        <dbl> <lgl>        <lgl>        
 1 M            0.574 TRUE         FALSE        
 2 M            0.434 TRUE         FALSE        
 3 M            0.514 TRUE         FALSE        
 4 M            0.521 TRUE         FALSE        
 5 M            0.513 TRUE         FALSE        
 6 M            0.499 TRUE         FALSE        
 7 M            0.539 TRUE         FALSE        
 8 M            0.514 TRUE         FALSE        
 9 M            0.651 TRUE         FALSE        
10 M            0.700 TRUE         FALSE        
# … with 32 more rows
…
